
{

    "builders": [
	{
	  "type": "openstack",
	  "ssh_username": "ubuntu",
	  "image_name": "imta-ubuntu22_model",
	  "source_image_name": "ubuntu-22.04",
	  "networks": ["da4e88b9-f4a2-4d49-9907-afd1a67f10f6"],
	  "floating_ip_network": "external",
	  "security_groups": ["sg-packer"],
	  "flavor": "m1.small",
	  "insecure": "true",
          "user_data_file": "scripts/imta-ubuntu22-base.sh"
        }
    ],
    "provisioners": [
        {
            "type": "shell",
            "inline": [
                "printf 'Waiting for cloud-init...'",
                "while [ ! -f /var/lib/cloud/instance/boot-finished ]; do printf '.'; sleep 1; done"
            ]
        },
        {
            "type": "shell",
            "execute_command": "sudo -S bash -c '{{ .Vars }} {{ .Path }}'",
            "scripts": [
                "scripts/imta-ubuntu22-clean.sh"
            ]
        }

    ]
}

