
{

    "builders": [
	{
	  "type": "openstack",
	  "ssh_username": "ubuntu",
	  "image_name": "imta_ubuntu_osmanager_model",
	  "source_image_name": "ubuntu_18.0.4_current",
	  "networks": ["13bada1f-7fb9-4e00-acb5-c67f2dd542d3"],
	  "floating_ip_network": "external",
	  "security_groups": ["admin"],
	  "flavor": "m1.small",
	  "insecure": "true",
          "user_data_file": "scripts/imta-ubuntu-basic.sh"
	}
    ],
    "provisioners": [
        {
            "type": "shell",
            "inline": [
                "printf 'Waiting for cloud-init...'",
                "while [ ! -f /var/lib/cloud/instance/boot-finished ]; do printf '.'; sleep 1; done"
            ]
        },
        {
            "type": "shell",
            "execute_command": "sudo -S bash -c '{{ .Vars }} {{ .Path }}'",
            "scripts": [
                "scripts/imta-ubuntu-osmanager.sh"
            ]
        },
        {
            "type": "shell",
            "execute_command": "sudo -S bash -c '{{ .Vars }} {{ .Path }}'",
            "scripts": [
                "scripts/imta-ubuntu-docker.sh",
                "scripts/ubuntu-clean.sh"
            ]
        }

    ]
}
